<?xml version="1.0" encoding="UTF-8" standalone="no"?>
<svg
   xmlns:dc="http://purl.org/dc/elements/1.1/"
   xmlns:cc="http://creativecommons.org/ns#"
   xmlns:rdf="http://www.w3.org/1999/02/22-rdf-syntax-ns#"
   xmlns:svg="http://www.w3.org/2000/svg"
   xmlns="http://www.w3.org/2000/svg"
   xmlns:sodipodi="http://sodipodi.sourceforge.net/DTD/sodipodi-0.dtd"
   xmlns:inkscape="http://www.inkscape.org/namespaces/inkscape"
   width="23.024393"
   height="30.949505"
   viewBox="0 0 23.024393 30.949505"
   version="1.1"
   id="svg1086"
   sodipodi:docname="bulb.svg"
   style="fill:none"
   inkscape:version="0.92.4 (5da689c313, 2019-01-14)">
  <metadata
     id="metadata1092">
    <rdf:RDF>
      <cc:Work
         rdf:about="">
        <dc:format>image/svg+xml</dc:format>
        <dc:type
           rdf:resource="http://purl.org/dc/dcmitype/StillImage" />
      </cc:Work>
    </rdf:RDF>
  </metadata>
  <defs
     id="defs1090" />
  <sodipodi:namedview
     pagecolor="#ffffff"
     bordercolor="#666666"
     borderopacity="1"
     objecttolerance="10"
     gridtolerance="10"
     guidetolerance="10"
     inkscape:pageopacity="0"
     inkscape:pageshadow="2"
     inkscape:window-width="640"
     inkscape:window-height="480"
     id="namedview1088"
     showgrid="false"
     inkscape:zoom="7.375"
     inkscape:cx="11.30854"
     inkscape:cy="15.4589"
     inkscape:window-x="0"
     inkscape:window-y="0"
     inkscape:window-maximized="0"
     inkscape:current-layer="svg1086" />
  <line
     x1="9.3085403"
     y1="27.858305"
     x2="14.30854"
     y2="27.858305"
     id="line1072"
     style="stroke:#00c9f8;stroke-width:2" />
  <line
     x1="9.3085403"
     y1="30.449505"
     x2="14.30854"
     y2="30.449505"
     id="line1074"
     style="stroke:#00c9f8" />
  <path
     d="M 0.30854023,3.764135 2.7085402,5.646195"
     id="path1076"
     inkscape:connector-curvature="0"
     style="stroke:#00c9f8" />
  <path
     d="m 2.3330702,13.664005 c -0.3368,4.1916 2.86673,7.152 5.19492,8.5295 0.61561,0.3643 1.04148,1.0034 1.04148,1.7187 0,0.9993 0.81007,1.8093 1.8092698,1.8093 h 2.3892 c 0.9905,0 1.7934,-0.8029 1.7934,-1.7933 0,-0.7224 0.4417,-1.3623 1.0762,-1.7076 4.671,-2.5414 4.671,-6.9491 4.671,-8.5566 0,-1.7225 -1.3428,-7.80869 -9.1711,-7.80868 -5.9918698,0 -8.4998798,4.01918 -8.8043698,7.80868 z"
     id="path1078"
     inkscape:connector-curvature="0"
     style="stroke:#00c9f8;stroke-width:1.29999995" />
  <path
     d="m 11.30854,9.043915 c 1.3978,-0.21094 4.3548,0.11074 5,3.08489"
     id="path1080"
     inkscape:connector-curvature="0"
     style="stroke:#00c9f8" />
  <path
     d="m 20.29484,5.627035 2.4271,-1.84375"
     id="path1082"
     inkscape:connector-curvature="0"
     style="stroke:#00c9f8" />
  <path
     d="M 11.50824,3.136765 V 0"
     id="path1084"
     inkscape:connector-curvature="0"
     style="stroke:#00c9f8" />
</svg>
